<?xml version="1.0" encoding="utf-8"?>
<!-- Generator: Adobe Illustrator 17.1.0, SVG Export Plug-In . SVG Version: 6.00 Build 0)  -->
<!DOCTYPE svg PUBLIC "-//W3C//DTD SVG 1.1//EN" "http://www.w3.org/Graphics/SVG/1.1/DTD/svg11.dtd">
<svg version="1.1" xmlns="http://www.w3.org/2000/svg" xmlns:xlink="http://www.w3.org/1999/xlink" x="0px" y="0px"
	 viewBox="0 0 106.818 25.042" enable-background="new 0 0 106.818 25.042" xml:space="preserve">
<g id="Layer_1">
	<g>
		<path fill="#4BC39B" d="M77.767,25.111c-5.1,0-7.852-4.438-7.852-8.612c0-4.312,2.709-8.679,7.886-8.679
			c2.151,0,5.012,0.718,6.587,2.733c1.252,1.607,1.432,2.686,1.576,3.553l0.058,0.332c0.255,1.36,0.244,2.242,0.228,3.575
			c-0.005,0.368-0.01,0.771-0.01,1.227c0,1.872,0.033,5.345,0.033,5.345l0.001,0.076h-2.917v-2.153
			C81.931,24.226,80.053,25.111,77.767,25.111z M77.871,10.048c-3.541,0-5.656,3.182-5.656,6.258c0,3.299,1.955,6.638,5.693,6.638
			c4.015,0,5.812-3.313,5.812-6.597C83.72,12.637,81.314,10.048,77.871,10.048z"/>
		<path fill="#4BC39B" d="M77.801,7.895c2.211,0,4.994,0.742,6.527,2.704c1.403,1.801,1.444,2.916,1.619,3.853
			c0.324,1.727,0.217,2.678,0.217,4.788c0,1.872,0.033,5.346,0.033,5.346h-2.766V22.34h-0.067c-1.417,1.795-3.318,2.695-5.598,2.695
			c-4.771,0-7.776-4.046-7.776-8.537C69.99,11.869,72.927,7.895,77.801,7.895 M77.908,23.018c3.863,0,5.887-3.113,5.887-6.672
			c0-3.523-2.212-6.374-5.924-6.374c-3.486,0-5.731,3.037-5.731,6.333C72.14,19.756,74.163,23.018,77.908,23.018 M77.801,7.745
			c-5.226,0-7.96,4.404-7.96,8.754c0,4.211,2.778,8.687,7.926,8.687c2.243,0,4.097-0.844,5.515-2.508v1.908v0.15h0.15h2.766h0.151
			l-0.001-0.151c0-0.035-0.033-3.494-0.033-5.344c0-0.456,0.005-0.858,0.01-1.225c0.017-1.338,0.028-2.222-0.229-3.591
			c-0.02-0.107-0.038-0.217-0.057-0.33c-0.146-0.875-0.327-1.965-1.591-3.587C82.855,8.471,79.97,7.745,77.801,7.745L77.801,7.745z
			 M77.908,22.868c-2.706,0-5.618-2.054-5.618-6.563c0-4.016,2.876-6.183,5.581-6.183c3.4,0,5.774,2.559,5.774,6.224
			C83.645,19.593,81.871,22.868,77.908,22.868L77.908,22.868z"/>
	</g>
	<g>
		<path fill="#4BC39B" d="M45.435,24.65v-9.796c0-1.518-0.395-2.735-1.175-3.62c-0.775-0.88-1.907-1.326-3.363-1.326
			c-0.692,0-1.351,0.123-1.956,0.365c-0.598,0.241-1.127,0.593-1.572,1.045c-0.443,0.456-0.791,1.005-1.031,1.633
			c-0.242,0.627-0.364,1.332-0.364,2.097v9.603h-2.635V7.822h2.635v2.722c0.541-0.812,1.237-1.521,2.073-2.109
			c0.915-0.642,2.112-0.968,3.56-0.968c1.018,0,1.934,0.166,2.722,0.492c0.793,0.324,1.476,0.792,2.026,1.389
			c0.553,0.596,0.981,1.315,1.273,2.138c0.293,0.816,0.441,1.736,0.441,2.735v10.43H45.435z"/>
		<path fill="#4BC39B" d="M41.605,7.542c1.011,0,1.91,0.162,2.693,0.486c0.785,0.321,1.453,0.778,2,1.37
			c0.549,0.592,0.968,1.296,1.258,2.112c0.293,0.817,0.436,1.72,0.436,2.71v10.355H45.51v-9.721c0-1.543-0.398-2.768-1.193-3.67
			c-0.796-0.902-1.935-1.352-3.42-1.352c-0.711,0-1.372,0.126-1.984,0.371c-0.611,0.247-1.143,0.601-1.598,1.062
			c-0.449,0.462-0.801,1.015-1.048,1.658c-0.248,0.644-0.369,1.351-0.369,2.124v9.527h-2.484V7.897h2.484v2.902
			c0.558-0.901,1.289-1.669,2.191-2.304C38.993,7.861,40.166,7.542,41.605,7.542 M41.605,7.392c-1.463,0-2.675,0.33-3.603,0.981
			c-0.774,0.545-1.43,1.192-1.955,1.93V7.897v-0.15h-0.15h-2.484h-0.15v0.15v16.678v0.15h0.15h2.484h0.15v-0.15v-9.527
			c0-0.755,0.121-1.452,0.359-2.07c0.237-0.618,0.579-1.159,1.015-1.608c0.438-0.444,0.959-0.789,1.546-1.027
			c0.597-0.239,1.246-0.36,1.928-0.36c1.433,0,2.546,0.438,3.307,1.301c0.767,0.871,1.156,2.072,1.156,3.571v9.721v0.15h0.15h2.483
			h0.15v-0.15V14.22c0-1.007-0.15-1.936-0.445-2.76c-0.296-0.832-0.729-1.56-1.289-2.164c-0.559-0.605-1.25-1.078-2.053-1.407
			C43.558,7.559,42.633,7.392,41.605,7.392L41.605,7.392z"/>
	</g>
	<g>
		<path fill="#4BC39B" d="M57.833,24.94c-0.667,0-1.304-0.088-1.894-0.262c-0.587-0.174-1.102-0.455-1.527-0.838
			c-0.425-0.381-0.763-0.885-1.005-1.498c-0.238-0.61-0.358-1.347-0.358-2.187v-9.989h-2.322V7.822h2.322V2.791h2.634v5.031h5.29
			v2.345h-5.29v9.643c0,0.998,0.251,1.704,0.746,2.097c0.499,0.394,1.167,0.593,1.984,0.593c0.424,0,0.826-0.04,1.195-0.119
			c0.367-0.079,0.77-0.221,1.194-0.421l0.107-0.05v2.247c-0.479,0.306-0.946,0.486-1.431,0.604
			C58.987,24.88,58.434,24.94,57.833,24.94z"/>
		<path fill="#4BC39B" d="M55.608,2.866v5.031h5.29v2.194h-5.29v9.718c0,1.028,0.259,1.746,0.774,2.155
			c0.515,0.405,1.194,0.609,2.031,0.609c0.43,0,0.833-0.04,1.211-0.121c0.376-0.081,0.778-0.223,1.211-0.426v2.129
			c-0.433,0.236-0.89,0.414-1.373,0.531c-0.483,0.117-1.026,0.178-1.629,0.178c-0.666,0-1.292-0.088-1.872-0.259
			c-0.58-0.171-1.08-0.445-1.499-0.821c-0.418-0.376-0.746-0.866-0.985-1.47c-0.233-0.601-0.353-1.322-0.353-2.159V10.091h-2.322
			V7.897h2.322V2.866H55.608 M55.758,2.716h-0.15h-2.483h-0.15v0.15v4.881h-2.172h-0.15v0.15v2.194v0.15h0.15h2.172v9.915
			c0,0.849,0.122,1.594,0.363,2.213c0.247,0.624,0.592,1.138,1.025,1.527c0.435,0.39,0.959,0.677,1.557,0.854
			c0.596,0.176,1.24,0.265,1.914,0.265c0.606,0,1.166-0.061,1.664-0.182c0.491-0.119,0.965-0.302,1.41-0.545l0.078-0.043v-0.089
			v-2.129v-0.236l-0.214,0.1c-0.42,0.197-0.817,0.337-1.179,0.415c-0.364,0.078-0.761,0.118-1.179,0.118
			c-0.8,0-1.452-0.194-1.938-0.577c-0.476-0.378-0.717-1.063-0.717-2.037v-9.568h5.14h0.15v-0.15V7.897v-0.15h-0.15h-5.14V2.866
			V2.716L55.758,2.716z"/>
	</g>
	<g>
		<rect x="64.28" y="0.951" fill="#4BC39B" width="2.635" height="23.699"/>
		<path fill="#4BC39B" d="M66.84,1.026v23.549h-2.484V1.026H66.84 M66.99,0.876h-0.15h-2.484h-0.15v0.15v23.549v0.15h0.15h2.484
			h0.15v-0.15V1.026V0.876L66.99,0.876z"/>
	</g>
	<g>
		<path fill="#4BC39B" d="M98.624,25.006c-0.771,0-1.495-0.1-2.151-0.296c-0.65-0.196-1.243-0.459-1.761-0.782
			c-0.521-0.326-0.997-0.71-1.415-1.139c-0.363-0.371-0.693-0.764-0.985-1.171v3.032h-2.634V0.951h2.634v10.067
			c0.31-0.428,0.651-0.843,1.016-1.236c0.42-0.452,0.897-0.852,1.418-1.188c0.514-0.333,1.101-0.606,1.743-0.814
			c0.639-0.207,1.357-0.312,2.136-0.312c0.996,0,1.987,0.197,2.947,0.587c0.958,0.388,1.829,0.964,2.589,1.712
			c0.758,0.746,1.37,1.666,1.821,2.733c0.455,1.068,0.686,2.309,0.686,3.687c0,1.424-0.23,2.66-0.686,3.742
			c-0.452,1.079-1.06,2.003-1.805,2.746c-0.748,0.748-1.614,1.328-2.574,1.727C100.641,24.802,99.639,25.006,98.624,25.006z
			 M98.172,9.844c-0.761,0-1.505,0.155-2.214,0.461c-0.708,0.306-1.351,0.746-1.911,1.308c-0.56,0.561-1.01,1.235-1.338,2.006
			c-0.328,0.775-0.494,1.64-0.494,2.567c0,1.021,0.166,1.9,0.494,2.683c0.329,0.784,0.779,1.46,1.338,2.007
			c0.562,0.552,1.205,0.985,1.911,1.289c0.704,0.308,1.448,0.463,2.214,0.463c0.782,0,1.538-0.145,2.247-0.429
			c0.707-0.285,1.327-0.702,1.844-1.24s0.934-1.208,1.242-1.991c0.307-0.782,0.463-1.685,0.463-2.682
			c0-1.042-0.156-1.934-0.463-2.716c-0.311-0.788-0.733-1.463-1.258-2.008c-0.53-0.55-1.151-0.979-1.848-1.273
			C99.701,9.994,98.951,9.844,98.172,9.844z"/>
		<path fill="#4BC39B" d="M92.237,1.026v10.227c0.345-0.493,0.728-0.968,1.146-1.42c0.419-0.45,0.887-0.842,1.404-1.177
			c0.515-0.333,1.091-0.601,1.726-0.806c0.632-0.205,1.337-0.309,2.112-0.309c0.988,0,1.963,0.193,2.919,0.581
			c0.956,0.387,1.811,0.954,2.564,1.696c0.752,0.74,1.354,1.643,1.805,2.709c0.452,1.062,0.68,2.283,0.68,3.658v0.067
			c0,1.355-0.227,2.57-0.68,3.646c-0.45,1.075-1.046,1.982-1.788,2.723c-0.743,0.742-1.594,1.314-2.55,1.71
			c-0.956,0.399-1.939,0.599-2.95,0.599c-0.775,0-1.484-0.1-2.13-0.293c-0.644-0.193-1.225-0.45-1.742-0.773
			c-0.515-0.322-0.983-0.698-1.401-1.128c-0.421-0.43-0.792-0.882-1.114-1.356v3.195h-2.483V1.026H92.237 M98.172,22.703
			c0.795,0,1.553-0.145,2.275-0.435c0.72-0.29,1.343-0.709,1.869-1.258c0.527-0.549,0.945-1.22,1.258-2.016
			c0.313-0.797,0.469-1.699,0.469-2.709V16.22c0-0.988-0.155-1.881-0.469-2.678c-0.312-0.794-0.735-1.474-1.273-2.032
			c-0.537-0.558-1.161-0.989-1.872-1.291c-0.708-0.299-1.462-0.45-2.257-0.45c-0.773,0-1.52,0.155-2.243,0.468
			c-0.72,0.311-1.365,0.752-1.934,1.323c-0.569,0.569-1.021,1.247-1.355,2.029c-0.333,0.788-0.5,1.652-0.5,2.597v0.067
			c0,0.968,0.167,1.85,0.5,2.645c0.333,0.794,0.785,1.474,1.355,2.031c0.569,0.559,1.215,0.995,1.934,1.305
			C96.652,22.549,97.399,22.703,98.172,22.703 M92.387,0.876h-0.15h-2.483h-0.15v0.15v23.549v0.15h0.15h2.483h0.15v-0.15v-2.728
			c0.26,0.344,0.547,0.677,0.857,0.994c0.422,0.433,0.903,0.821,1.429,1.15c0.523,0.327,1.121,0.592,1.779,0.79
			c0.663,0.199,1.394,0.299,2.173,0.299c1.024,0,2.036-0.205,3.008-0.61c0.968-0.402,1.843-0.988,2.598-1.742
			c0.752-0.75,1.365-1.683,1.82-2.771c0.459-1.091,0.691-2.337,0.691-3.703v-0.067c0-1.389-0.233-2.64-0.692-3.717
			c-0.454-1.077-1.073-2.004-1.837-2.757c-0.766-0.755-1.646-1.337-2.613-1.728c-0.969-0.393-1.97-0.592-2.975-0.592
			c-0.786,0-1.513,0.106-2.159,0.316c-0.649,0.21-1.242,0.486-1.761,0.822c-0.526,0.341-1.008,0.744-1.433,1.2
			c-0.314,0.34-0.611,0.695-0.886,1.06V1.026V0.876L92.387,0.876z M98.172,22.553c-0.755,0-1.49-0.153-2.183-0.456
			c-0.698-0.3-1.334-0.729-1.889-1.274c-0.552-0.54-0.996-1.207-1.321-1.982c-0.324-0.773-0.488-1.644-0.488-2.587v-0.067
			c0-0.918,0.164-1.772,0.488-2.538c0.324-0.762,0.769-1.429,1.322-1.982c0.553-0.555,1.188-0.99,1.888-1.292
			c0.699-0.302,1.434-0.456,2.184-0.456c0.77,0,1.509,0.148,2.198,0.438c0.687,0.291,1.3,0.714,1.822,1.257
			c0.518,0.537,0.935,1.204,1.242,1.983c0.304,0.773,0.458,1.656,0.458,2.623v0.065c0,0.988-0.154,1.881-0.458,2.654
			c-0.304,0.775-0.717,1.436-1.226,1.967c-0.509,0.53-1.12,0.942-1.817,1.223C99.691,22.41,98.944,22.553,98.172,22.553
			L98.172,22.553z"/>
	</g>
	<path fill-rule="evenodd" clip-rule="evenodd" fill="#4BC39B" stroke="#4BC39B" stroke-miterlimit="10" d="M27.514,4.112
		c-0.966,0-1.749-0.783-1.749-1.749c0-0.966,0.783-1.749,1.749-1.749c0.966,0,1.749,0.783,1.749,1.749"/>
	<path fill-rule="evenodd" clip-rule="evenodd" fill="#4BC39B" stroke="#4BC39B" stroke-miterlimit="10" d="M29.263,2.362
		c0,0.966-0.783,1.749-1.749,1.749"/>
	<g>
		<rect x="26.258" y="7.759" fill="#4BC39B" width="2.644" height="16.888"/>
		<path fill="#4BC39B" d="M28.826,7.835v16.737h-2.493V7.835H28.826 M28.976,7.685h-0.15h-2.493h-0.15v0.15v16.737v0.15h0.15h2.493
			h0.15v-0.15V7.835V7.685L28.976,7.685z"/>
	</g>
</g>
<g id="bubbles" display="none">
	<path display="inline" fill-rule="evenodd" clip-rule="evenodd" d="M128.217-0.363c0,0.545-0.441,0.986-0.986,0.986
		c-0.545,0-0.986-0.441-0.986-0.986c0-0.544,0.441-0.986,0.986-0.986C127.776-1.349,128.217-0.907,128.217-0.363"/>
	<path display="inline" fill-rule="evenodd" clip-rule="evenodd" d="M124.849-4.554c0.216,0,0.391,0.175,0.391,0.391
		c0,0.216-0.175,0.391-0.391,0.391c-0.216,0-0.391-0.175-0.391-0.391C124.457-4.379,124.633-4.554,124.849-4.554z"/>
	<path display="inline" fill-rule="evenodd" clip-rule="evenodd" d="M125.099,1.1c0.368,0,0.666,0.298,0.666,0.666
		c0,0.368-0.298,0.666-0.666,0.666c-0.368,0-0.666-0.298-0.666-0.666C124.433,1.398,124.731,1.1,125.099,1.1z"/>
</g>
<g id="Laag_4" display="none">
	<g display="inline">
		<path stroke="#000000" stroke-width="0.75" stroke-miterlimit="10" d="M94.443,11.892h2.48v2.802
			c0.279-0.408,0.585-0.805,0.918-1.192c0.332-0.386,0.713-0.724,1.144-1.014c0.429-0.29,0.912-0.52,1.449-0.692
			c0.537-0.172,1.16-0.258,1.867-0.258c1.352,0,2.469,0.317,3.35,0.95c0.88,0.634,1.545,1.423,1.996,2.368
			c0.301-0.451,0.639-0.881,1.014-1.288c0.375-0.408,0.8-0.762,1.272-1.062c0.473-0.301,1.003-0.537,1.594-0.709
			c0.591-0.172,1.251-0.258,1.981-0.258c1.932,0,3.446,0.597,4.54,1.788c1.095,1.192,1.642,2.829,1.642,4.911v10.305h-2.48v-9.704
			c0-1.607-0.381-2.844-1.143-3.711c-0.763-0.868-1.82-1.302-3.173-1.302c-0.623,0-1.213,0.113-1.771,0.338
			c-0.558,0.224-1.047,0.556-1.465,0.996c-0.419,0.439-0.752,0.98-0.999,1.623c-0.247,0.643-0.37,1.371-0.37,2.186v9.575h-2.447
			v-9.769c0-1.564-0.381-2.779-1.143-3.646c-0.763-0.868-1.809-1.302-3.14-1.302c-0.665,0-1.278,0.129-1.836,0.386
			c-0.559,0.256-1.047,0.621-1.465,1.092c-0.419,0.472-0.746,1.023-0.983,1.655c-0.236,0.632-0.354,1.334-0.354,2.104v9.48h-2.48
			V11.892z"/>
	</g>
</g>
<g id="Laag_3" display="none">
	<path display="inline" d="M128.327,11.683h-0.247h-2.875h-0.31c-0.364,0-0.926,0.202-0.926,0.765c0,0.453,0.562,0.688,0.926,0.688
		h0.45v14.197c0,0.771,0.485,1.401,1.257,1.401h0.093c0.771,0,1.275-0.63,1.275-1.401V13.135h0.357c0.364,0,0.908-0.125,0.908-0.719
		C129.234,11.854,128.691,11.683,128.327,11.683z"/>
</g>
<g id="Laag_2">
	<g>
		<polygon fill="#4BC39B" points="18.668,24.689 18.668,7.075 10.806,18.635 10.619,18.669 2.696,7.104 2.696,24.689 0.129,24.689 
			0.129,2.584 2.714,2.584 10.713,14.505 18.647,2.617 21.297,2.584 21.297,24.689 		"/>
		<path fill="#4BC39B" d="M21.221,2.659v21.955h-2.479V6.832l-7.999,11.762h-0.125L2.621,6.862v17.752H0.205V2.659h2.51l7.999,11.98
			l7.996-11.98H21.221 M21.371,2.509h-0.15H18.71h-0.08l-0.045,0.067l-7.871,11.794L2.839,2.576L2.795,2.509h-0.08h-2.51h-0.15v0.15
			v21.955v0.15h0.15h2.416h0.15v-0.15V7.348l7.724,11.33l0.045,0.066h0.079h0.125h0.079l0.045-0.066l7.725-11.359v17.295v0.15h0.15
			h2.479h0.15v-0.15V2.659V2.509L21.371,2.509z"/>
	</g>
</g>
</svg>
